…
    ## Classes 'tbl_df', 'tbl' and 'data.frame':    1704 obs. of  6 variables:
    ##  $ country  : Factor w/ 142 levels "Afghanistan",..: 1 1 1 1 1 1 1 1 1 1 ...
    ##  $ continent: Factor w/ 5 levels "Africa","Americas",..: 3 3 3 3 3 3 3 3 3 3 ...
    ##  $ year     : int  1952 1957 1962 1967 1972 1977 1982 1987 1992 1997 ...
    ##  $ lifeExp  : num  28.8 30.3 32 34 36.1 ...
    ##  $ pop      : int  8425333 9240934 10267083 11537966 13079460 14880372 12881816 13867957 16317921 22227415 ...
    ##  $ gdpPercap: num  779 821 853 836 740 ...

``` r
gapminder
```

    ## # A tibble: 1,704 x 6
    ##    country     continent  year lifeExp      pop gdpPercap
    ##    <fct>       <fct>     <int>   <dbl>    <int>     <dbl>
    ##  1 Afghanistan Asia       1952    28.8  8425333      779.
    ##  2 Afghanistan Asia       1957    30.3  9240934      821.
    ##  3 Afghanistan Asia       1962    32.0 10267083      853.
    ##  4 Afghanistan Asia       1967    34.0 11537966      836.
    ##  5 Afghanistan Asia       1972    36.1 13079460      740.
    ##  6 Afghanistan Asia       1977    38.4 14880372      786.
    ##  7 Afghanistan Asia       1982    39.9 12881816      978.
    ##  8 Afghanistan Asia       1987    40.8 13867957      852.
    ##  9 Afghanistan Asia       1992    41.7 16317921      649.
    ## 10 Afghanistan Asia       1997    41.8 22227415      635.
    ## # ... with 1,694 more rows
…
## 2.1 중첩된 데이터

purrr의 map 함수를 사용하여 위의 과정을 반복할 수도 있다.

``` r
# nest를 통해서 그룹화된 데이터 이외의 것들을 data라는 하나의 항목에 압축시켜 놓는 모양이다.
by_country <- gapminder %>% 
  group_by(country, continent) %>% 
  nest()

by_country
```

    ## # A tibble: 142 x 3
    ##    country     continent data             
    ##    <fct>       <fct>     <list>           
    ##  1 Afghanistan Asia      <tibble [12 x 4]>
    ##  2 Albania     Europe    <tibble [12 x 4]>
    ##  3 Algeria     Africa    <tibble [12 x 4]>
    ##  4 Angola      Africa    <tibble [12 x 4]>
    ##  5 Argentina   Americas  <tibble [12 x 4]>
    ##  6 Australia   Oceania   <tibble [12 x 4]>
    ##  7 Austria     Europe    <tibble [12 x 4]>
    ##  8 Bahrain     Asia      <tibble [12 x 4]>
    ##  9 Bangladesh  Asia      <tibble [12 x 4]>
    ## 10 Belgium     Europe    <tibble [12 x 4]>
    ## # ... with 132 more rows
…
map함수를 이용하여 각 요소에 대해 country\_model을 적용하면 된다.

``` r
# map함수를 이용한 모델 생성
models <- map(by_country$data, country_model)

# by_country에 새로운 변수로 추가
by_country$model <- models

by_country
```

    ## # A tibble: 142 x 4
    ##    country     continent data              model   
    ##    <fct>       <fct>     <list>            <list>  
    ##  1 Afghanistan Asia      <tibble [12 x 4]> <S3: lm>
    ##  2 Albania     Europe    <tibble [12 x 4]> <S3: lm>
    ##  3 Algeria     Africa    <tibble [12 x 4]> <S3: lm>
    ##  4 Angola      Africa    <tibble [12 x 4]> <S3: lm>
    ##  5 Argentina   Americas  <tibble [12 x 4]> <S3: lm>
    ##  6 Australia   Oceania   <tibble [12 x 4]> <S3: lm>
    ##  7 Austria     Europe    <tibble [12 x 4]> <S3: lm>
    ##  8 Bahrain     Asia      <tibble [12 x 4]> <S3: lm>
    ##  9 Bangladesh  Asia      <tibble [12 x 4]> <S3: lm>
    ## 10 Belgium     Europe    <tibble [12 x 4]> <S3: lm>
    ## # ... with 132 more rows

## 2.3 중첩 해제하기(Unnesting)

현재는 142개의 데이터프레임과 142개의 모델을 보유하고 있다. 잔차를 계산하기 위해 각 모델과 데이터 쌍에 대해
add\_residuals를 적용한다.

``` r
by_country <- by_country %>% 
  mutate(resids = map2(data, model, add_residuals))

by_country
```

    ## # A tibble: 142 x 5
    ##    country     continent data              model    resids           
    ##    <fct>       <fct>     <list>            <list>   <list>           
    ##  1 Afghanistan Asia      <tibble [12 x 4]> <S3: lm> <tibble [12 x 5]>
    ##  2 Albania     Europe    <tibble [12 x 4]> <S3: lm> <tibble [12 x 5]>
    ##  3 Algeria     Africa    <tibble [12 x 4]> <S3: lm> <tibble [12 x 5]>
    ##  4 Angola      Africa    <tibble [12 x 4]> <S3: lm> <tibble [12 x 5]>
    ##  5 Argentina   Americas  <tibble [12 x 4]> <S3: lm> <tibble [12 x 5]>
    ##  6 Australia   Oceania   <tibble [12 x 4]> <S3: lm> <tibble [12 x 5]>
    ##  7 Austria     Europe    <tibble [12 x 4]> <S3: lm> <tibble [12 x 5]>
    ##  8 Bahrain     Asia      <tibble [12 x 4]> <S3: lm> <tibble [12 x 5]>
    ##  9 Bangladesh  Asia      <tibble [12 x 4]> <S3: lm> <tibble [12 x 5]>
    ## 10 Belgium     Europe    <tibble [12 x 4]> <S3: lm> <tibble [12 x 5]>
    ## # ... with 132 more rows

데이터프레임 리스트를 어떻게 하면 플롯으로 나타낼 수 있는가? 우선 unnest를 이용하여 중첩된 데이터프레임을 일반
데이터프레임으로 돌려보자.

``` r
resids <- unnest(by_country, resids)
resids
```

    ## # A tibble: 1,704 x 7
    ##    country     continent  year lifeExp      pop gdpPercap   resid
    ##    <fct>       <fct>     <int>   <dbl>    <int>     <dbl>   <dbl>
    ##  1 Afghanistan Asia       1952    28.8  8425333      779. -1.11  
    ##  2 Afghanistan Asia       1957    30.3  9240934      821. -0.952 
    ##  3 Afghanistan Asia       1962    32.0 10267083      853. -0.664 
    ##  4 Afghanistan Asia       1967    34.0 11537966      836. -0.0172
    ##  5 Afghanistan Asia       1972    36.1 13079460      740.  0.674 
    ##  6 Afghanistan Asia       1977    38.4 14880372      786.  1.65  
    ##  7 Afghanistan Asia       1982    39.9 12881816      978.  1.69  
    ##  8 Afghanistan Asia       1987    40.8 13867957      852.  1.28  
    ##  9 Afghanistan Asia       1992    41.7 16317921      649.  0.754 
    ## 10 Afghanistan Asia       1997    41.8 22227415      635. -0.534 
    ## # ... with 1,694 more rows
…
    ## # A tibble: 1 x 11
    ##   r.squared adj.r.squared sigma statistic p.value    df logLik   AIC   BIC
    ##       <dbl>         <dbl> <dbl>     <dbl>   <dbl> <int>  <dbl> <dbl> <dbl>
    ## 1     0.954         0.949 0.804      205. 5.41e-8     2  -13.3  32.6  34.1
    ## # ... with 2 more variables: deviance <dbl>, df.residual <int>

mutate와 unnest를 이용하여 국가별로 하나의 행이 존재하는 데이터프레임을 만들 수 있다.

``` r
by_country %>% 
  mutate(glance = map(model, broom::glance)) %>% 
  unnest(glance)
```

    ## # A tibble: 142 x 16
    ##    country continent data  model resids r.squared adj.r.squared sigma
    ##    <fct>   <fct>     <lis> <lis> <list>     <dbl>         <dbl> <dbl>
    ##  1 Afghan~ Asia      <tib~ <S3:~ <tibb~     0.948         0.942 1.22 
    ##  2 Albania Europe    <tib~ <S3:~ <tibb~     0.911         0.902 1.98 
    ##  3 Algeria Africa    <tib~ <S3:~ <tibb~     0.985         0.984 1.32 
    ##  4 Angola  Africa    <tib~ <S3:~ <tibb~     0.888         0.877 1.41 
    ##  5 Argent~ Americas  <tib~ <S3:~ <tibb~     0.996         0.995 0.292
    ##  6 Austra~ Oceania   <tib~ <S3:~ <tibb~     0.980         0.978 0.621
    ##  7 Austria Europe    <tib~ <S3:~ <tibb~     0.992         0.991 0.407
    ##  8 Bahrain Asia      <tib~ <S3:~ <tibb~     0.967         0.963 1.64 
    ##  9 Bangla~ Asia      <tib~ <S3:~ <tibb~     0.989         0.988 0.977
    ## 10 Belgium Europe    <tib~ <S3:~ <tibb~     0.995         0.994 0.293
    ## # ... with 132 more rows, and 8 more variables: statistic <dbl>,
    ## #   p.value <dbl>, df <int>, logLik <dbl>, AIC <dbl>, BIC <dbl>,
    ## #   deviance <dbl>, df.residual <int>

그렇지만 여전히 모든 리스트-열을 포함하고 있으므로 이는 우리가 원하는 결과물이 아니다. 이것은 unnest를 단일 행의
데이터프레임에 적용했을 때의 기본 동작이다. 이 열을 숨기기 위해서는 **.drop = TRUE**를 사용하면
된다.

``` r
glance <- by_country %>% 
  mutate(glance = map(model, broom::glance)) %>% 
  unnest(glance, .drop = TRUE)

glance
```

    ## # A tibble: 142 x 13
    ##    country continent r.squared adj.r.squared sigma statistic  p.value    df
    ##    <fct>   <fct>         <dbl>         <dbl> <dbl>     <dbl>    <dbl> <int>
    ##  1 Afghan~ Asia          0.948         0.942 1.22      181.  9.84e- 8     2
    ##  2 Albania Europe        0.911         0.902 1.98      102.  1.46e- 6     2
    ##  3 Algeria Africa        0.985         0.984 1.32      662.  1.81e-10     2
    ##  4 Angola  Africa        0.888         0.877 1.41       79.1 4.59e- 6     2
    ##  5 Argent~ Americas      0.996         0.995 0.292    2246.  4.22e-13     2
    ##  6 Austra~ Oceania       0.980         0.978 0.621     481.  8.67e-10     2
    ##  7 Austria Europe        0.992         0.991 0.407    1261.  7.44e-12     2
    ##  8 Bahrain Asia          0.967         0.963 1.64      291.  1.02e- 8     2
    ##  9 Bangla~ Asia          0.989         0.988 0.977     930.  3.37e-11     2
    ## 10 Belgium Europe        0.995         0.994 0.293    1822.  1.20e-12     2
    ## # ... with 132 more rows, and 5 more variables: logLik <dbl>, AIC <dbl>,
    ## #   BIC <dbl>, deviance <dbl>, df.residual <int>

이를 이용하여 잘 맞지 않는 모델을 찾을 수 있다.

``` r
glance %>% 
  arrange(r.squared)
```

    ## # A tibble: 142 x 13
    ##    country continent r.squared adj.r.squared sigma statistic p.value    df
    ##    <fct>   <fct>         <dbl>         <dbl> <dbl>     <dbl>   <dbl> <int>
    ##  1 Rwanda  Africa       0.0172      -0.0811   6.56     0.175  0.685      2
    ##  2 Botswa~ Africa       0.0340      -0.0626   6.11     0.352  0.566      2
    ##  3 Zimbab~ Africa       0.0562      -0.0381   7.21     0.596  0.458      2
    ##  4 Zambia  Africa       0.0598      -0.0342   4.53     0.636  0.444      2
    ##  5 Swazil~ Africa       0.0682      -0.0250   6.64     0.732  0.412      2
    ##  6 Lesotho Africa       0.0849      -0.00666  5.93     0.927  0.358      2
    ##  7 Cote d~ Africa       0.283        0.212    3.93     3.95   0.0748     2
    ##  8 South ~ Africa       0.312        0.244    4.74     4.54   0.0588     2
    ##  9 Uganda  Africa       0.342        0.276    3.19     5.20   0.0457     2
    ## 10 Congo,~ Africa       0.348        0.283    2.43     5.34   0.0434     2
    ## # ... with 132 more rows, and 5 more variables: logLik <dbl>, AIC <dbl>,
    ## #   BIC <dbl>, deviance <dbl>, df.residual <int>
…
또는 tibble::enframe함수를 사용하여 명명된 리스트에서 생성할 수 있다.

## 4.1 중첩을 사용하여 생성하기

nest 함수는 중첩된 데이터프레임을 생성한다. 중첩된 데이터프레임의 각 행은 메타 관측값을 나타낸다. 다른 열은 관측값을
정의하는 변수를 제공하고 데이터프레임의 리스트열은 메타 관측값을 구성하는 개별 관측값을 제공한다.

``` r
gapminder %>% 
  group_by(country, continent) %>% 
  nest()
```

    ## # A tibble: 142 x 3
    ##    country     continent data             
    ##    <fct>       <fct>     <list>           
    ##  1 Afghanistan Asia      <tibble [12 x 4]>
    ##  2 Albania     Europe    <tibble [12 x 4]>
    ##  3 Algeria     Africa    <tibble [12 x 4]>
    ##  4 Angola      Africa    <tibble [12 x 4]>
    ##  5 Argentina   Americas  <tibble [12 x 4]>
    ##  6 Australia   Oceania   <tibble [12 x 4]>
    ##  7 Austria     Europe    <tibble [12 x 4]>
    ##  8 Bahrain     Asia      <tibble [12 x 4]>
    ##  9 Bangladesh  Asia      <tibble [12 x 4]>
    ## 10 Belgium     Europe    <tibble [12 x 4]>
    ## # ... with 132 more rows

그룹화되지 않은 데이터프레임에서도 중첩하고자 하는 열을 지정하면 사용할 수 있다.

``` r
gapminder %>% 
  nest(year:gdpPercap)
```

    ## # A tibble: 142 x 3
    ##    country     continent data             
    ##    <fct>       <fct>     <list>           
    ##  1 Afghanistan Asia      <tibble [12 x 4]>
    ##  2 Albania     Europe    <tibble [12 x 4]>
    ##  3 Algeria     Africa    <tibble [12 x 4]>
    ##  4 Angola      Africa    <tibble [12 x 4]>
    ##  5 Argentina   Americas  <tibble [12 x 4]>
    ##  6 Australia   Oceania   <tibble [12 x 4]>
    ##  7 Austria     Europe    <tibble [12 x 4]>
    ##  8 Bahrain     Asia      <tibble [12 x 4]>
    ##  9 Bangladesh  Asia      <tibble [12 x 4]>
    ## 10 Belgium     Europe    <tibble [12 x 4]>
    ## # ... with 132 more rows
…
