…
위의 함수들은 다음과 같은 공통점이 있다.<br> (1) 첫 인수는 데이터프레임이다.<br> (2) 그 이후의 인수들은 따옴표없이 변수 이름을 사용한다.<br> (3) 데이터프레임을 반환한다.<br>

filter()로 행 필터링하기
========================

``` r
dplyr::filter(flights, month == 1, day == 1)
```

    ## # A tibble: 842 x 19
    ##     year month   day dep_time sched_dep_time dep_delay arr_time
    ##    <int> <int> <int>    <int>          <int>     <dbl>    <int>
    ##  1  2013     1     1      517            515         2      830
    ##  2  2013     1     1      533            529         4      850
    ##  3  2013     1     1      542            540         2      923
    ##  4  2013     1     1      544            545        -1     1004
    ##  5  2013     1     1      554            600        -6      812
    ##  6  2013     1     1      554            558        -4      740
    ##  7  2013     1     1      555            600        -5      913
    ##  8  2013     1     1      557            600        -3      709
    ##  9  2013     1     1      557            600        -3      838
    ## 10  2013     1     1      558            600        -2      753
    ## # ... with 832 more rows, and 12 more variables: sched_arr_time <int>,
    ## #   arr_delay <dbl>, carrier <chr>, flight <int>, tailnum <chr>,
    ## #   origin <chr>, dest <chr>, air_time <dbl>, distance <dbl>, hour <dbl>,
    ## #   minute <dbl>, time_hour <dttm>
…
    ## [1] FALSE

``` r
near(1 / 49 * 49, 1)
```

    ## [1] TRUE

``` r
#,를 하면 &(and)역할, |를 사용하면 or역할
dplyr::filter(flights, month == 11 | month == 12)
```

    ## # A tibble: 55,403 x 19
    ##     year month   day dep_time sched_dep_time dep_delay arr_time
    ##    <int> <int> <int>    <int>          <int>     <dbl>    <int>
    ##  1  2013    11     1        5           2359         6      352
    ##  2  2013    11     1       35           2250       105      123
    ##  3  2013    11     1      455            500        -5      641
    ##  4  2013    11     1      539            545        -6      856
    ##  5  2013    11     1      542            545        -3      831
    ##  6  2013    11     1      549            600       -11      912
    ##  7  2013    11     1      550            600       -10      705
    ##  8  2013    11     1      554            600        -6      659
    ##  9  2013    11     1      554            600        -6      826
    ## 10  2013    11     1      554            600        -6      749
    ## # ... with 55,393 more rows, and 12 more variables: sched_arr_time <int>,
    ## #   arr_delay <dbl>, carrier <chr>, flight <int>, tailnum <chr>,
    ## #   origin <chr>, dest <chr>, air_time <dbl>, distance <dbl>, hour <dbl>,
    ## #   minute <dbl>, time_hour <dttm>

``` r
# %in% : 집합에 포함되는 것만 반환
dplyr::filter(flights, month %in% c(11,12))
```

    ## # A tibble: 55,403 x 19
    ##     year month   day dep_time sched_dep_time dep_delay arr_time
    ##    <int> <int> <int>    <int>          <int>     <dbl>    <int>
    ##  1  2013    11     1        5           2359         6      352
    ##  2  2013    11     1       35           2250       105      123
    ##  3  2013    11     1      455            500        -5      641
    ##  4  2013    11     1      539            545        -6      856
    ##  5  2013    11     1      542            545        -3      831
    ##  6  2013    11     1      549            600       -11      912
    ##  7  2013    11     1      550            600       -10      705
    ##  8  2013    11     1      554            600        -6      659
    ##  9  2013    11     1      554            600        -6      826
    ## 10  2013    11     1      554            600        -6      749
    ## # ... with 55,393 more rows, and 12 more variables: sched_arr_time <int>,
    ## #   arr_delay <dbl>, carrier <chr>, flight <int>, tailnum <chr>,
    ## #   origin <chr>, dest <chr>, air_time <dbl>, distance <dbl>, hour <dbl>,
    ## #   minute <dbl>, time_hour <dttm>

``` r
# 아래의 두 코드는 같은 뜻이다. (드모르간 법칙 적용됨)
filter(flights, !(arr_delay > 120 | dep_delay > 120))
```

    ## # A tibble: 316,050 x 19
    ##     year month   day dep_time sched_dep_time dep_delay arr_time
    ##    <int> <int> <int>    <int>          <int>     <dbl>    <int>
    ##  1  2013     1     1      517            515         2      830
    ##  2  2013     1     1      533            529         4      850
    ##  3  2013     1     1      542            540         2      923
    ##  4  2013     1     1      544            545        -1     1004
    ##  5  2013     1     1      554            600        -6      812
    ##  6  2013     1     1      554            558        -4      740
    ##  7  2013     1     1      555            600        -5      913
    ##  8  2013     1     1      557            600        -3      709
    ##  9  2013     1     1      557            600        -3      838
    ## 10  2013     1     1      558            600        -2      753
    ## # ... with 316,040 more rows, and 12 more variables: sched_arr_time <int>,
    ## #   arr_delay <dbl>, carrier <chr>, flight <int>, tailnum <chr>,
    ## #   origin <chr>, dest <chr>, air_time <dbl>, distance <dbl>, hour <dbl>,
    ## #   minute <dbl>, time_hour <dttm>

``` r
filter(flights, arr_delay <= 120, dep_delay <= 120)
```

    ## # A tibble: 316,050 x 19
    ##     year month   day dep_time sched_dep_time dep_delay arr_time
    ##    <int> <int> <int>    <int>          <int>     <dbl>    <int>
    ##  1  2013     1     1      517            515         2      830
    ##  2  2013     1     1      533            529         4      850
    ##  3  2013     1     1      542            540         2      923
    ##  4  2013     1     1      544            545        -1     1004
    ##  5  2013     1     1      554            600        -6      812
    ##  6  2013     1     1      554            558        -4      740
    ##  7  2013     1     1      555            600        -5      913
    ##  8  2013     1     1      557            600        -3      709
    ##  9  2013     1     1      557            600        -3      838
    ## 10  2013     1     1      558            600        -2      753
    ## # ... with 316,040 more rows, and 12 more variables: sched_arr_time <int>,
    ## #   arr_delay <dbl>, carrier <chr>, flight <int>, tailnum <chr>,
    ## #   origin <chr>, dest <chr>, air_time <dbl>, distance <dbl>, hour <dbl>,
    ## #   minute <dbl>, time_hour <dttm>
…
    ## # A tibble: 2 x 1
    ##       x
    ##   <dbl>
    ## 1    NA
    ## 2     3

연습문제
--------

``` r
# 2시간 이상 도착 지연
dplyr::filter(flights, dep_delay > 2)
```

    ## # A tibble: 114,149 x 19
    ##     year month   day dep_time sched_dep_time dep_delay arr_time
    ##    <int> <int> <int>    <int>          <int>     <dbl>    <int>
    ##  1  2013     1     1      533            529         4      850
    ##  2  2013     1     1      608            600         8      807
    ##  3  2013     1     1      611            600        11      945
    ##  4  2013     1     1      613            610         3      925
    ##  5  2013     1     1      623            610        13      920
    ##  6  2013     1     1      632            608        24      740
    ##  7  2013     1     1      644            636         8      931
    ##  8  2013     1     1      709            700         9      852
    ##  9  2013     1     1      732            729         3     1041
    ## 10  2013     1     1      732            645        47     1011
    ## # ... with 114,139 more rows, and 12 more variables: sched_arr_time <int>,
    ## #   arr_delay <dbl>, carrier <chr>, flight <int>, tailnum <chr>,
    ## #   origin <chr>, dest <chr>, air_time <dbl>, distance <dbl>, hour <dbl>,
    ## #   minute <dbl>, time_hour <dttm>

``` r
# IAH 또는 HOU으로 운항
dplyr::filter(flights, dest == "IAH" | dest == "HOU")
```

    ## # A tibble: 9,313 x 19
    ##     year month   day dep_time sched_dep_time dep_delay arr_time
    ##    <int> <int> <int>    <int>          <int>     <dbl>    <int>
    ##  1  2013     1     1      517            515         2      830
    ##  2  2013     1     1      533            529         4      850
    ##  3  2013     1     1      623            627        -4      933
    ##  4  2013     1     1      728            732        -4     1041
    ##  5  2013     1     1      739            739         0     1104
    ##  6  2013     1     1      908            908         0     1228
    ##  7  2013     1     1     1028           1026         2     1350
    ##  8  2013     1     1     1044           1045        -1     1352
    ##  9  2013     1     1     1114            900       134     1447
    ## 10  2013     1     1     1205           1200         5     1503
    ## # ... with 9,303 more rows, and 12 more variables: sched_arr_time <int>,
    ## #   arr_delay <dbl>, carrier <chr>, flight <int>, tailnum <chr>,
    ## #   origin <chr>, dest <chr>, air_time <dbl>, distance <dbl>, hour <dbl>,
    ## #   minute <dbl>, time_hour <dttm>

``` r
# United(UA), American(AA), Delta(DL)이 운항
dplyr::filter(flights, carrier %in% c("UA","AA","DL"))
```

    ## # A tibble: 139,504 x 19
    ##     year month   day dep_time sched_dep_time dep_delay arr_time
    ##    <int> <int> <int>    <int>          <int>     <dbl>    <int>
    ##  1  2013     1     1      517            515         2      830
    ##  2  2013     1     1      533            529         4      850
    ##  3  2013     1     1      542            540         2      923
    ##  4  2013     1     1      554            600        -6      812
    ##  5  2013     1     1      554            558        -4      740
    ##  6  2013     1     1      558            600        -2      753
    ##  7  2013     1     1      558            600        -2      924
    ##  8  2013     1     1      558            600        -2      923
    ##  9  2013     1     1      559            600        -1      941
    ## 10  2013     1     1      559            600        -1      854
    ## # ... with 139,494 more rows, and 12 more variables: sched_arr_time <int>,
    ## #   arr_delay <dbl>, carrier <chr>, flight <int>, tailnum <chr>,
    ## #   origin <chr>, dest <chr>, air_time <dbl>, distance <dbl>, hour <dbl>,
    ## #   minute <dbl>, time_hour <dttm>
…
    ## [1] NA

arrange()로 행 정렬하기
=======================

arrange()는 행을 선택하는 대신, **순서를 바꾼다는 것**만 제외하고는 filter()와 유사하게 작동한다.<br> 데이터프레임과 정렬기준으로 지정할 열 이름 집합을 입력으로 한다.<br> **결측값(NA)은 마지막에 정렬된다.**

``` r
# 기본 용법
arrange(flights, year, month, day)
```

    ## # A tibble: 336,776 x 19
    ##     year month   day dep_time sched_dep_time dep_delay arr_time
    ##    <int> <int> <int>    <int>          <int>     <dbl>    <int>
    ##  1  2013     1     1      517            515         2      830
    ##  2  2013     1     1      533            529         4      850
    ##  3  2013     1     1      542            540         2      923
    ##  4  2013     1     1      544            545        -1     1004
    ##  5  2013     1     1      554            600        -6      812
    ##  6  2013     1     1      554            558        -4      740
    ##  7  2013     1     1      555            600        -5      913
    ##  8  2013     1     1      557            600        -3      709
    ##  9  2013     1     1      557            600        -3      838
    ## 10  2013     1     1      558            600        -2      753
    ## # ... with 336,766 more rows, and 12 more variables: sched_arr_time <int>,
    ## #   arr_delay <dbl>, carrier <chr>, flight <int>, tailnum <chr>,
    ## #   origin <chr>, dest <chr>, air_time <dbl>, distance <dbl>, hour <dbl>,
    ## #   minute <dbl>, time_hour <dttm>

``` r
# desc()을 통한 내림차순 정렬
arrange(flights, year, desc(month))
```

    ## # A tibble: 336,776 x 19
    ##     year month   day dep_time sched_dep_time dep_delay arr_time
    ##    <int> <int> <int>    <int>          <int>     <dbl>    <int>
    ##  1  2013    12     1       13           2359        14      446
    ##  2  2013    12     1       17           2359        18      443
    ##  3  2013    12     1      453            500        -7      636
    ##  4  2013    12     1      520            515         5      749
    ##  5  2013    12     1      536            540        -4      845
    ##  6  2013    12     1      540            550       -10     1005
    ##  7  2013    12     1      541            545        -4      734
    ##  8  2013    12     1      546            545         1      826
    ##  9  2013    12     1      549            600       -11      648
    ## 10  2013    12     1      550            600       -10      825
    ## # ... with 336,766 more rows, and 12 more variables: sched_arr_time <int>,
    ## #   arr_delay <dbl>, carrier <chr>, flight <int>, tailnum <chr>,
    ## #   origin <chr>, dest <chr>, air_time <dbl>, distance <dbl>, hour <dbl>,
    ## #   minute <dbl>, time_hour <dttm>

``` r
# 모든 결측값을 앞에 오도록 설정하기
arrange(flights, desc(is.na(dep_time)))
```

    ## # A tibble: 336,776 x 19
    ##     year month   day dep_time sched_dep_time dep_delay arr_time
    ##    <int> <int> <int>    <int>          <int>     <dbl>    <int>
    ##  1  2013     1     1       NA           1630        NA       NA
    ##  2  2013     1     1       NA           1935        NA       NA
    ##  3  2013     1     1       NA           1500        NA       NA
    ##  4  2013     1     1       NA            600        NA       NA
    ##  5  2013     1     2       NA           1540        NA       NA
    ##  6  2013     1     2       NA           1620        NA       NA
    ##  7  2013     1     2       NA           1355        NA       NA
    ##  8  2013     1     2       NA           1420        NA       NA
    ##  9  2013     1     2       NA           1321        NA       NA
    ## 10  2013     1     2       NA           1545        NA       NA
    ## # ... with 336,766 more rows, and 12 more variables: sched_arr_time <int>,
    ## #   arr_delay <dbl>, carrier <chr>, flight <int>, tailnum <chr>,
    ## #   origin <chr>, dest <chr>, air_time <dbl>, distance <dbl>, hour <dbl>,
    ## #   minute <dbl>, time_hour <dttm>
…
| select안에서 사용할 수 있는 함수 |             기능 설명            |
|:--------------------------------:|:--------------------------------:|
|       starts\_with("char")       | 해당 문자로 시작하는 변수에 매칭 |
|        ends\_with("char")        |  해당 문자로 끝나는 변수에 매칭  |
|         contains("char")         | 해당 문자를 포함하는 변수에 매칭 |
|        matches("(.)\\\\1")       |  정규표현식에 매칭되는 변수 선택 |
|       num\_range("x", 1:3)       |         x1, x2, x3에 매칭        |

``` r
# 기본 용법
select(flights, year, month, day)
```

    ## # A tibble: 336,776 x 3
    ##     year month   day
    ##    <int> <int> <int>
    ##  1  2013     1     1
    ##  2  2013     1     1
    ##  3  2013     1     1
    ##  4  2013     1     1
    ##  5  2013     1     1
    ##  6  2013     1     1
    ##  7  2013     1     1
    ##  8  2013     1     1
    ##  9  2013     1     1
    ## 10  2013     1     1
    ## # ... with 336,766 more rows

``` r
# 슬라이싱 가능
select(flights, year:day)
```

    ## # A tibble: 336,776 x 3
    ##     year month   day
    ##    <int> <int> <int>
    ##  1  2013     1     1
    ##  2  2013     1     1
    ##  3  2013     1     1
    ##  4  2013     1     1
    ##  5  2013     1     1
    ##  6  2013     1     1
    ##  7  2013     1     1
    ##  8  2013     1     1
    ##  9  2013     1     1
    ## 10  2013     1     1
    ## # ... with 336,766 more rows

``` r
# 선택 열만 제외하기
select(flights, -c(year:day))
```

    ## # A tibble: 336,776 x 16
    ##    dep_time sched_dep_time dep_delay arr_time sched_arr_time arr_delay
    ##       <int>          <int>     <dbl>    <int>          <int>     <dbl>
    ##  1      517            515         2      830            819        11
    ##  2      533            529         4      850            830        20
    ##  3      542            540         2      923            850        33
    ##  4      544            545        -1     1004           1022       -18
    ##  5      554            600        -6      812            837       -25
    ##  6      554            558        -4      740            728        12
    ##  7      555            600        -5      913            854        19
    ##  8      557            600        -3      709            723       -14
    ##  9      557            600        -3      838            846        -8
    ## 10      558            600        -2      753            745         8
    ## # ... with 336,766 more rows, and 10 more variables: carrier <chr>,
    ## #   flight <int>, tailnum <chr>, origin <chr>, dest <chr>, air_time <dbl>,
    ## #   distance <dbl>, hour <dbl>, minute <dbl>, time_hour <dttm>

select()의 변형인 **rename()**을 사용하면 명시적으로 **언급하지 않은 모든 변수를 유지**한다.

``` r
# tailnum이라는 변수를 tail_num이라는 이름으로 바꿈.
rename(flights, tail_num = tailnum)
```

    ## # A tibble: 336,776 x 19
    ##     year month   day dep_time sched_dep_time dep_delay arr_time
    ##    <int> <int> <int>    <int>          <int>     <dbl>    <int>
    ##  1  2013     1     1      517            515         2      830
    ##  2  2013     1     1      533            529         4      850
    ##  3  2013     1     1      542            540         2      923
    ##  4  2013     1     1      544            545        -1     1004
    ##  5  2013     1     1      554            600        -6      812
    ##  6  2013     1     1      554            558        -4      740
    ##  7  2013     1     1      555            600        -5      913
    ##  8  2013     1     1      557            600        -3      709
    ##  9  2013     1     1      557            600        -3      838
    ## 10  2013     1     1      558            600        -2      753
    ## # ... with 336,766 more rows, and 12 more variables: sched_arr_time <int>,
    ## #   arr_delay <dbl>, carrier <chr>, flight <int>, tail_num <chr>,
    ## #   origin <chr>, dest <chr>, air_time <dbl>, distance <dbl>, hour <dbl>,
    ## #   minute <dbl>, time_hour <dttm>

``` r
# select()에서도 언급하지 않은 변수를 유지하는 방법
select(flights, time_hour, air_time, everything())
```

    ## # A tibble: 336,776 x 19
    ##    time_hour           air_time  year month   day dep_time sched_dep_time
    ##    <dttm>                 <dbl> <int> <int> <int>    <int>          <int>
    ##  1 2013-01-01 05:00:00      227  2013     1     1      517            515
    ##  2 2013-01-01 05:00:00      227  2013     1     1      533            529
    ##  3 2013-01-01 05:00:00      160  2013     1     1      542            540
    ##  4 2013-01-01 05:00:00      183  2013     1     1      544            545
    ##  5 2013-01-01 06:00:00      116  2013     1     1      554            600
    ##  6 2013-01-01 05:00:00      150  2013     1     1      554            558
    ##  7 2013-01-01 06:00:00      158  2013     1     1      555            600
    ##  8 2013-01-01 06:00:00       53  2013     1     1      557            600
    ##  9 2013-01-01 06:00:00      140  2013     1     1      557            600
    ## 10 2013-01-01 06:00:00      138  2013     1     1      558            600
    ## # ... with 336,766 more rows, and 12 more variables: dep_delay <dbl>,
    ## #   arr_time <int>, sched_arr_time <int>, arr_delay <dbl>, carrier <chr>,
    ## #   flight <int>, tailnum <chr>, origin <chr>, dest <chr>, distance <dbl>,
    ## #   hour <dbl>, minute <dbl>

연습문제
--------

``` r
# select()호출에서 한 변수 이름을 여러 번 포함할 경우
select(flights, year, year)
```

    ## # A tibble: 336,776 x 1
    ##     year
    ##    <int>
    ##  1  2013
    ##  2  2013
    ##  3  2013
    ##  4  2013
    ##  5  2013
    ##  6  2013
    ##  7  2013
    ##  8  2013
    ##  9  2013
    ## 10  2013
    ## # ... with 336,766 more rows
…
