…
    ## [1] "2017-01-31 20:11:59 UTC"

## 2.2 개별 구성요소에서 생성하기

데이트-타임형의 개별 구성요소들이 여러 열에 걸쳐 있는 경우가 있다. 그럴 경우에는, **데이트형을 만들고자 할 때
make\_date함수를, 데이트-타임형은 make\_datetime을 쓰면 된다.**

``` r
# 날짜가 따로따로 분포되어있는 케이스
flights %>% 
  dplyr::select(year, month, day, hour, minute)
```

    ## # A tibble: 336,776 x 5
    ##     year month   day  hour minute
    ##    <int> <int> <int> <dbl>  <dbl>
    ##  1  2013     1     1     5     15
    ##  2  2013     1     1     5     29
    ##  3  2013     1     1     5     40
    ##  4  2013     1     1     5     45
    ##  5  2013     1     1     6      0
    ##  6  2013     1     1     5     58
    ##  7  2013     1     1     6      0
    ##  8  2013     1     1     6      0
    ##  9  2013     1     1     6      0
    ## 10  2013     1     1     6      0
    ## # ... with 336,766 more rows

``` r
# make_datetime
flights %>% 
  dplyr::select(year, month, day, hour, minute) %>% 
  dplyr::mutate(departure = make_datetime(year, month, day, hour, minute))
```

    ## # A tibble: 336,776 x 6
    ##     year month   day  hour minute departure          
    ##    <int> <int> <int> <dbl>  <dbl> <dttm>             
    ##  1  2013     1     1     5     15 2013-01-01 05:15:00
    ##  2  2013     1     1     5     29 2013-01-01 05:29:00
    ##  3  2013     1     1     5     40 2013-01-01 05:40:00
    ##  4  2013     1     1     5     45 2013-01-01 05:45:00
    ##  5  2013     1     1     6      0 2013-01-01 06:00:00
    ##  6  2013     1     1     5     58 2013-01-01 05:58:00
    ##  7  2013     1     1     6      0 2013-01-01 06:00:00
    ##  8  2013     1     1     6      0 2013-01-01 06:00:00
    ##  9  2013     1     1     6      0 2013-01-01 06:00:00
    ## 10  2013     1     1     6      0 2013-01-01 06:00:00
    ## # ... with 336,766 more rows
…
    ## [1] "2017-01-01"

``` r
# 피리어드를 사용하여 flights 데이터의 비행 날짜에 관한 문제를 해결하기

# 일부 항공편은 뉴욕시에서 출발하기 전에 목적지에 도착한 것처럼 보여진다.
# 이들은 심야 항공편이기 때문이다.
flights.dt %>% 
  dplyr::filter(arr_time < dep_time)
```

    ## # A tibble: 10,633 x 9
    ##    origin dest  dep_delay arr_delay dep_time            sched_dep_time     
    ##    <chr>  <chr>     <dbl>     <dbl> <dttm>              <dttm>             
    ##  1 EWR    BQN           9        -4 2013-01-01 19:29:00 2013-01-01 19:20:00
    ##  2 JFK    DFW          59        NA 2013-01-01 19:39:00 2013-01-01 18:40:00
    ##  3 EWR    TPA          -2         9 2013-01-01 20:58:00 2013-01-01 21:00:00
    ##  4 EWR    SJU          -6       -12 2013-01-01 21:02:00 2013-01-01 21:08:00
    ##  5 EWR    SFO          11       -14 2013-01-01 21:08:00 2013-01-01 20:57:00
    ##  6 LGA    FLL         -10        -2 2013-01-01 21:20:00 2013-01-01 21:30:00
    ##  7 EWR    MCO          41        43 2013-01-01 21:21:00 2013-01-01 20:40:00
    ##  8 JFK    LAX          -7       -24 2013-01-01 21:28:00 2013-01-01 21:35:00
    ##  9 EWR    FLL          49        28 2013-01-01 21:34:00 2013-01-01 20:45:00
    ## 10 EWR    FLL          -9       -14 2013-01-01 21:36:00 2013-01-01 21:45:00
    ## # ... with 10,623 more rows, and 3 more variables: arr_time <dttm>,
    ## #   sched_arr_time <dttm>, air_time <dbl>
…
