…
예상했지만, 이 방법은 효율적이지 못하다. smooth나 parked같은 형용사도 검출하고 있다. **데이터가 티블인 경우,
tidyr::extract를 사용하는 것이 더 쉽다.** 이 함수는 str\_match()처럼 동작하지만 매치의 이름을 사용자가
지정하도록 하고, 그 각각을 새로운 열로 배치한다.

``` r
tibble(sentence = sentences) %>% 
  tidyr::extract(sentence,
                 c("article", "noun"),
                 "(a|the) ([^ ]+)",
                 remove = FALSE)
```

    ## # A tibble: 720 x 3
    ##    sentence                                    article noun   
    ##    <chr>                                       <chr>   <chr>  
    ##  1 The birch canoe slid on the smooth planks.  the     smooth 
    ##  2 Glue the sheet to the dark blue background. the     sheet  
    ##  3 It's easy to tell the depth of a well.      the     depth  
    ##  4 These days a chicken leg is a rare dish.    a       chicken
    ##  5 Rice is often served in round bowls.        <NA>    <NA>   
    ##  6 The juice of lemons makes fine punch.       <NA>    <NA>   
    ##  7 The box was thrown beside the parked truck. the     parked 
    ##  8 The hogs were fed chopped corn and garbage. <NA>    <NA>   
    ##  9 Four hours of steady work faced us.         <NA>    <NA>   
    ## 10 Large size in stockings is hard to sell.    <NA>    <NA>   
    ## # ... with 710 more rows
…
