…
``` r
# airports에는 각 공항에 대한 정보가 faa 공항 코드로 식별되어 있다.
airports
```

    ## # A tibble: 1,458 x 8
    ##    faa   name                    lat    lon   alt    tz dst   tzone        
    ##    <chr> <chr>                 <dbl>  <dbl> <int> <dbl> <chr> <chr>        
    ##  1 04G   Lansdowne Airport      41.1  -80.6  1044    -5 A     America/New_~
    ##  2 06A   Moton Field Municipa~  32.5  -85.7   264    -6 A     America/Chic~
    ##  3 06C   Schaumburg Regional    42.0  -88.1   801    -6 A     America/Chic~
    ##  4 06N   Randall Airport        41.4  -74.4   523    -5 A     America/New_~
    ##  5 09J   Jekyll Island Airport  31.1  -81.4    11    -5 A     America/New_~
    ##  6 0A9   Elizabethton Municip~  36.4  -82.2  1593    -5 A     America/New_~
    ##  7 0G6   Williams County Airp~  41.5  -84.5   730    -5 A     America/New_~
    ##  8 0G7   Finger Lakes Regiona~  42.9  -76.8   492    -5 A     America/New_~
    ##  9 0P2   Shoestring Aviation ~  39.8  -76.6  1000    -5 U     America/New_~
    ## 10 0S9   Jefferson County Intl  48.1 -123.    108    -8 A     America/Los_~
    ## # ... with 1,448 more rows

``` r
# planes에는 각 여객기에 대한 정보기 tailnum으로 식별되어 있다.
planes
```

    ## # A tibble: 3,322 x 9
    ##    tailnum  year type       manufacturer  model  engines seats speed engine
    ##    <chr>   <int> <chr>      <chr>         <chr>    <int> <int> <int> <chr> 
    ##  1 N10156   2004 Fixed win~ EMBRAER       EMB-1~       2    55    NA Turbo~
    ##  2 N102UW   1998 Fixed win~ AIRBUS INDUS~ A320-~       2   182    NA Turbo~
    ##  3 N103US   1999 Fixed win~ AIRBUS INDUS~ A320-~       2   182    NA Turbo~
    ##  4 N104UW   1999 Fixed win~ AIRBUS INDUS~ A320-~       2   182    NA Turbo~
    ##  5 N10575   2002 Fixed win~ EMBRAER       EMB-1~       2    55    NA Turbo~
    ##  6 N105UW   1999 Fixed win~ AIRBUS INDUS~ A320-~       2   182    NA Turbo~
    ##  7 N107US   1999 Fixed win~ AIRBUS INDUS~ A320-~       2   182    NA Turbo~
    ##  8 N108UW   1999 Fixed win~ AIRBUS INDUS~ A320-~       2   182    NA Turbo~
    ##  9 N109UW   1999 Fixed win~ AIRBUS INDUS~ A320-~       2   182    NA Turbo~
    ## 10 N110UW   1999 Fixed win~ AIRBUS INDUS~ A320-~       2   182    NA Turbo~
    ## # ... with 3,312 more rows

``` r
# weather에는 각 NYC공항의 매 시각 날씨 정보가 있다.
weather
```

    ## # A tibble: 26,115 x 15
    ##    origin  year month   day  hour  temp  dewp humid wind_dir wind_speed
    ##    <chr>  <dbl> <dbl> <int> <int> <dbl> <dbl> <dbl>    <dbl>      <dbl>
    ##  1 EWR     2013     1     1     1  39.0  26.1  59.4      270      10.4 
    ##  2 EWR     2013     1     1     2  39.0  27.0  61.6      250       8.06
    ##  3 EWR     2013     1     1     3  39.0  28.0  64.4      240      11.5 
    ##  4 EWR     2013     1     1     4  39.9  28.0  62.2      250      12.7 
    ##  5 EWR     2013     1     1     5  39.0  28.0  64.4      260      12.7 
    ##  6 EWR     2013     1     1     6  37.9  28.0  67.2      240      11.5 
    ##  7 EWR     2013     1     1     7  39.0  28.0  64.4      240      15.0 
    ##  8 EWR     2013     1     1     8  39.9  28.0  62.2      250      10.4 
    ##  9 EWR     2013     1     1     9  39.9  28.0  62.2      260      15.0 
    ## 10 EWR     2013     1     1    10  41    28.0  59.6      260      13.8 
    ## # ... with 26,105 more rows, and 5 more variables: wind_gust <dbl>,
    ## #   precip <dbl>, pressure <dbl>, visib <dbl>, time_hour <dttm>
…
테이블에 기본키가 없으면 **mutate()와 row\_number()를 이용하여 기본키를 추가**한다. 이렇게 하면 필터링을 수행하고 난 후 원래 데이터와 다시 점검할 때 관측값을 쉽게 일치시킬 수 있다. 이를 **대체키(surrogate key)**라고 한다.

연습문제(168p)
--------------

``` r
# flights에 대체키 추가하기
flights %>% 
  dplyr::mutate(key = row_number()) %>% 
  dplyr::select(key, everything())
```

    ## # A tibble: 336,776 x 20
    ##      key  year month   day dep_time sched_dep_time dep_delay arr_time
    ##    <int> <int> <int> <int>    <int>          <int>     <dbl>    <int>
    ##  1     1  2013     1     1      517            515         2      830
    ##  2     2  2013     1     1      533            529         4      850
    ##  3     3  2013     1     1      542            540         2      923
    ##  4     4  2013     1     1      544            545        -1     1004
    ##  5     5  2013     1     1      554            600        -6      812
    ##  6     6  2013     1     1      554            558        -4      740
    ##  7     7  2013     1     1      555            600        -5      913
    ##  8     8  2013     1     1      557            600        -3      709
    ##  9     9  2013     1     1      557            600        -3      838
    ## 10    10  2013     1     1      558            600        -2      753
    ## # ... with 336,766 more rows, and 12 more variables: sched_arr_time <int>,
    ## #   arr_delay <dbl>, carrier <chr>, flight <int>, tailnum <chr>,
    ## #   origin <chr>, dest <chr>, air_time <dbl>, distance <dbl>, hour <dbl>,
    ## #   minute <dbl>, time_hour <dttm>
…
``` r
flights2 %>% 
  select(-origin, -dest) %>% 
  left_join(airlines, by = "carrier")
```

    ## # A tibble: 336,776 x 7
    ##     year month   day  hour tailnum carrier name                    
    ##    <int> <int> <int> <dbl> <chr>   <chr>   <chr>                   
    ##  1  2013     1     1     5 N14228  UA      United Air Lines Inc.   
    ##  2  2013     1     1     5 N24211  UA      United Air Lines Inc.   
    ##  3  2013     1     1     5 N619AA  AA      American Airlines Inc.  
    ##  4  2013     1     1     5 N804JB  B6      JetBlue Airways         
    ##  5  2013     1     1     6 N668DN  DL      Delta Air Lines Inc.    
    ##  6  2013     1     1     5 N39463  UA      United Air Lines Inc.   
    ##  7  2013     1     1     6 N516JB  B6      JetBlue Airways         
    ##  8  2013     1     1     6 N829AS  EV      ExpressJet Airlines Inc.
    ##  9  2013     1     1     6 N593JB  B6      JetBlue Airways         
    ## 10  2013     1     1     6 N3ALAA  AA      American Airlines Inc.  
    ## # ... with 336,766 more rows
…
지금까지는 by = "key"를 통하여 조인을 하였지만, 다른 값을 사용하여 다른 방법으로 테이블을 연결할 수 있다.

-   기본값 by = NULL을 사용하면, 두 테이블에 있는 모든 변수를 사용하며 이는 **자연 조인(natural join)**이라 부른다.
-   문자형 벡터 by = "x". 이것은 자연 조인과 같지만 일부 공통 변수만 사용한다.
-   이름 있는 문자 벡터, by = c("a" = "b"). 테이블 x의 변수 a와 테이블 y의 변수 b를 매칭시킨다. x의 변수가 출력에 사용된다.

``` r
# 자연 조인
flights2 %>% 
  left_join(weather)
```

    ## Joining, by = c("year", "month", "day", "hour", "origin")

    ## # A tibble: 336,776 x 18
    ##     year month   day  hour origin dest  tailnum carrier  temp  dewp humid
    ##    <dbl> <dbl> <int> <dbl> <chr>  <chr> <chr>   <chr>   <dbl> <dbl> <dbl>
    ##  1  2013     1     1     5 EWR    IAH   N14228  UA       39.0  28.0  64.4
    ##  2  2013     1     1     5 LGA    IAH   N24211  UA       39.9  25.0  54.8
    ##  3  2013     1     1     5 JFK    MIA   N619AA  AA       39.0  27.0  61.6
    ##  4  2013     1     1     5 JFK    BQN   N804JB  B6       39.0  27.0  61.6
    ##  5  2013     1     1     6 LGA    ATL   N668DN  DL       39.9  25.0  54.8
    ##  6  2013     1     1     5 EWR    ORD   N39463  UA       39.0  28.0  64.4
    ##  7  2013     1     1     6 EWR    FLL   N516JB  B6       37.9  28.0  67.2
    ##  8  2013     1     1     6 LGA    IAD   N829AS  EV       39.9  25.0  54.8
    ##  9  2013     1     1     6 JFK    MCO   N593JB  B6       37.9  27.0  64.3
    ## 10  2013     1     1     6 LGA    ORD   N3ALAA  AA       39.9  25.0  54.8
    ## # ... with 336,766 more rows, and 7 more variables: wind_dir <dbl>,
    ## #   wind_speed <dbl>, wind_gust <dbl>, precip <dbl>, pressure <dbl>,
    ## #   visib <dbl>, time_hour <dttm>

``` r
# 문자형 벡터로 조인할 경우
flights2 %>% 
  left_join(planes, by = "tailnum")
```

    ## # A tibble: 336,776 x 16
    ##    year.x month   day  hour origin dest  tailnum carrier year.y type 
    ##     <int> <int> <int> <dbl> <chr>  <chr> <chr>   <chr>    <int> <chr>
    ##  1   2013     1     1     5 EWR    IAH   N14228  UA        1999 Fixe~
    ##  2   2013     1     1     5 LGA    IAH   N24211  UA        1998 Fixe~
    ##  3   2013     1     1     5 JFK    MIA   N619AA  AA        1990 Fixe~
    ##  4   2013     1     1     5 JFK    BQN   N804JB  B6        2012 Fixe~
    ##  5   2013     1     1     6 LGA    ATL   N668DN  DL        1991 Fixe~
    ##  6   2013     1     1     5 EWR    ORD   N39463  UA        2012 Fixe~
    ##  7   2013     1     1     6 EWR    FLL   N516JB  B6        2000 Fixe~
    ##  8   2013     1     1     6 LGA    IAD   N829AS  EV        1998 Fixe~
    ##  9   2013     1     1     6 JFK    MCO   N593JB  B6        2004 Fixe~
    ## 10   2013     1     1     6 LGA    ORD   N3ALAA  AA          NA <NA> 
    ## # ... with 336,766 more rows, and 6 more variables: manufacturer <chr>,
    ## #   model <chr>, engines <int>, seats <int>, speed <int>, engine <chr>

``` r
# x의 변수 a와 y의 변수 b를 매칭시키는 경우
flights2 %>% 
  left_join(airports, by = c("dest" = "faa"))
```

    ## # A tibble: 336,776 x 15
    ##     year month   day  hour origin dest  tailnum carrier name    lat   lon
    ##    <int> <int> <int> <dbl> <chr>  <chr> <chr>   <chr>   <chr> <dbl> <dbl>
    ##  1  2013     1     1     5 EWR    IAH   N14228  UA      Geor~  30.0 -95.3
    ##  2  2013     1     1     5 LGA    IAH   N24211  UA      Geor~  30.0 -95.3
    ##  3  2013     1     1     5 JFK    MIA   N619AA  AA      Miam~  25.8 -80.3
    ##  4  2013     1     1     5 JFK    BQN   N804JB  B6      <NA>   NA    NA  
    ##  5  2013     1     1     6 LGA    ATL   N668DN  DL      Hart~  33.6 -84.4
    ##  6  2013     1     1     5 EWR    ORD   N39463  UA      Chic~  42.0 -87.9
    ##  7  2013     1     1     6 EWR    FLL   N516JB  B6      Fort~  26.1 -80.2
    ##  8  2013     1     1     6 LGA    IAD   N829AS  EV      Wash~  38.9 -77.5
    ##  9  2013     1     1     6 JFK    MCO   N593JB  B6      Orla~  28.4 -81.3
    ## 10  2013     1     1     6 LGA    ORD   N3ALAA  AA      Chic~  42.0 -87.9
    ## # ... with 336,766 more rows, and 4 more variables: alt <int>, tz <dbl>,
    ## #   dst <chr>, tzone <chr>
…
``` r
# 직접 필터를 만드는 경우
flights %>%
  dplyr::filter(dest %in% top_dest$dest)
```

    ## # A tibble: 141,145 x 19
    ##     year month   day dep_time sched_dep_time dep_delay arr_time
    ##    <int> <int> <int>    <int>          <int>     <dbl>    <int>
    ##  1  2013     1     1      542            540         2      923
    ##  2  2013     1     1      554            600        -6      812
    ##  3  2013     1     1      554            558        -4      740
    ##  4  2013     1     1      555            600        -5      913
    ##  5  2013     1     1      557            600        -3      838
    ##  6  2013     1     1      558            600        -2      753
    ##  7  2013     1     1      558            600        -2      924
    ##  8  2013     1     1      558            600        -2      923
    ##  9  2013     1     1      559            559         0      702
    ## 10  2013     1     1      600            600         0      851
    ## # ... with 141,135 more rows, and 12 more variables: sched_arr_time <int>,
    ## #   arr_delay <dbl>, carrier <chr>, flight <int>, tailnum <chr>,
    ## #   origin <chr>, dest <chr>, air_time <dbl>, distance <dbl>, hour <dbl>,
    ## #   minute <dbl>, time_hour <dttm>

``` r
# semi_join을 이용하는 방법
flights %>% 
  semi_join(top_dest)
```

    ## Joining, by = "dest"

    ## # A tibble: 141,145 x 19
    ##     year month   day dep_time sched_dep_time dep_delay arr_time
    ##    <int> <int> <int>    <int>          <int>     <dbl>    <int>
    ##  1  2013     1     1      542            540         2      923
    ##  2  2013     1     1      554            600        -6      812
    ##  3  2013     1     1      554            558        -4      740
    ##  4  2013     1     1      555            600        -5      913
    ##  5  2013     1     1      557            600        -3      838
    ##  6  2013     1     1      558            600        -2      753
    ##  7  2013     1     1      558            600        -2      924
    ##  8  2013     1     1      558            600        -2      923
    ##  9  2013     1     1      559            559         0      702
    ## 10  2013     1     1      600            600         0      851
    ## # ... with 141,135 more rows, and 12 more variables: sched_arr_time <int>,
    ## #   arr_delay <dbl>, carrier <chr>, flight <int>, tailnum <chr>,
    ## #   origin <chr>, dest <chr>, air_time <dbl>, distance <dbl>, hour <dbl>,
    ## #   minute <dbl>, time_hour <dttm>

``` r
# anti_join
flights %>%
  anti_join(planes, by = "tailnum") %>% 
  count(tailnum, sort = TRUE)
```

    ## # A tibble: 722 x 2
    ##    tailnum     n
    ##    <chr>   <int>
    ##  1 <NA>     2512
    ##  2 N725MQ    575
    ##  3 N722MQ    513
    ##  4 N723MQ    507
    ##  5 N713MQ    483
    ##  6 N735MQ    396
    ##  7 N0EGMQ    371
    ##  8 N534MQ    364
    ##  9 N542MQ    363
    ## 10 N531MQ    349
    ## # ... with 712 more rows
…
