…
티블 생성하기
=============

|          함수         |                        설명                       |
|:---------------------:|:-------------------------------------------------:|
| as\_tibble(dataframe) |             데이터프레임을 티블로 전환            |
|        tibble()       |                   티블 생성하기                   |
|       tribble()       | 적은 양의 데이터를 읽기 쉬운 형태로 배치하는 티블 |

``` r
# 기존 데이터프레임을 티블로 전환하기
as_tibble(iris)
```

    ## # A tibble: 150 x 5
    ##    Sepal.Length Sepal.Width Petal.Length Petal.Width Species
    ##           <dbl>       <dbl>        <dbl>       <dbl> <fct>  
    ##  1          5.1         3.5          1.4         0.2 setosa 
    ##  2          4.9         3            1.4         0.2 setosa 
    ##  3          4.7         3.2          1.3         0.2 setosa 
    ##  4          4.6         3.1          1.5         0.2 setosa 
    ##  5          5           3.6          1.4         0.2 setosa 
    ##  6          5.4         3.9          1.7         0.4 setosa 
    ##  7          4.6         3.4          1.4         0.3 setosa 
    ##  8          5           3.4          1.5         0.2 setosa 
    ##  9          4.4         2.9          1.4         0.2 setosa 
    ## 10          4.9         3.1          1.5         0.1 setosa 
    ## # ... with 140 more rows
…
|                         함수                         |               설명               |
|:----------------------------------------------------:|:--------------------------------:|
| option(tibble.print\_max = n, tibble.print\_min = m) | m행 이상인 경우, n행만 출력한다. |
|            option(dplyr.print\_min = Inf)            |        모든 행을 항상 표시       |
|              option(tibble.width = Inf)              |          모든 열을 출력          |

``` r
tibble(a = lubridate::now() + runif(1e3)*86400,
       b = lubridate::today() + runif(1e3)*30,
       c = 1:1e3,
       d = runif(1e3),
       e = sample(letters, 1e3, replace = TRUE))
```

    ## # A tibble: 1,000 x 5
    ##    a                   b              c      d e    
    ##    <dttm>              <date>     <int>  <dbl> <chr>
    ##  1 2019-05-01 14:35:14 2019-05-05     1 0.472  a    
    ##  2 2019-05-01 10:45:36 2019-05-17     2 0.729  f    
    ##  3 2019-05-01 00:06:03 2019-05-12     3 0.490  b    
    ##  4 2019-05-01 04:47:25 2019-05-26     4 0.0754 w    
    ##  5 2019-05-01 01:06:37 2019-05-19     5 0.104  v    
    ##  6 2019-05-01 03:38:33 2019-05-05     6 0.577  y    
    ##  7 2019-05-01 08:39:27 2019-05-12     7 0.667  n    
    ##  8 2019-05-01 09:50:15 2019-05-03     8 0.557  v    
    ##  9 2019-05-01 20:27:54 2019-05-19     9 0.555  n    
    ## 10 2019-05-01 15:16:01 2019-05-28    10 0.182  k    
    ## # ... with 990 more rows
…
``` r
as.tibble(mtcars)
```

    ## Warning: `as.tibble()` is deprecated, use `as_tibble()` (but mind the new semantics).
    ## This warning is displayed once per session.

    ## # A tibble: 32 x 11
    ##      mpg   cyl  disp    hp  drat    wt  qsec    vs    am  gear  carb
    ##    <dbl> <dbl> <dbl> <dbl> <dbl> <dbl> <dbl> <dbl> <dbl> <dbl> <dbl>
    ##  1  21       6  160    110  3.9   2.62  16.5     0     1     4     4
    ##  2  21       6  160    110  3.9   2.88  17.0     0     1     4     4
    ##  3  22.8     4  108     93  3.85  2.32  18.6     1     1     4     1
    ##  4  21.4     6  258    110  3.08  3.22  19.4     1     0     3     1
    ##  5  18.7     8  360    175  3.15  3.44  17.0     0     0     3     2
    ##  6  18.1     6  225    105  2.76  3.46  20.2     1     0     3     1
    ##  7  14.3     8  360    245  3.21  3.57  15.8     0     0     3     4
    ##  8  24.4     4  147.    62  3.69  3.19  20       1     0     4     2
    ##  9  22.8     4  141.    95  3.92  3.15  22.9     1     0     4     2
    ## 10  19.2     6  168.   123  3.92  3.44  18.3     1     0     4     4
    ## # ... with 22 more rows
…
