…
사례연구
========

데이터를 타이디하게 만들기 위해 배운 것을 모두 정리하면서 이 장을 끝내자. **tidyr::who 데이터셋**에는 결핵 사례가 연도, 국가, 나이, 성별 및 진단 방법별로 세분화되어 있다.

이 데이터셋을 타이디하게 만들어서 작업을 하려고 한다.

``` r
who
```

    ## # A tibble: 7,240 x 60
    ##    country iso2  iso3   year new_sp_m014 new_sp_m1524 new_sp_m2534
    ##    <chr>   <chr> <chr> <int>       <int>        <int>        <int>
    ##  1 Afghan~ AF    AFG    1980          NA           NA           NA
    ##  2 Afghan~ AF    AFG    1981          NA           NA           NA
    ##  3 Afghan~ AF    AFG    1982          NA           NA           NA
    ##  4 Afghan~ AF    AFG    1983          NA           NA           NA
    ##  5 Afghan~ AF    AFG    1984          NA           NA           NA
    ##  6 Afghan~ AF    AFG    1985          NA           NA           NA
    ##  7 Afghan~ AF    AFG    1986          NA           NA           NA
    ##  8 Afghan~ AF    AFG    1987          NA           NA           NA
    ##  9 Afghan~ AF    AFG    1988          NA           NA           NA
    ## 10 Afghan~ AF    AFG    1989          NA           NA           NA
    ## # ... with 7,230 more rows, and 53 more variables: new_sp_m3544 <int>,
    ## #   new_sp_m4554 <int>, new_sp_m5564 <int>, new_sp_m65 <int>,
    ## #   new_sp_f014 <int>, new_sp_f1524 <int>, new_sp_f2534 <int>,
    ## #   new_sp_f3544 <int>, new_sp_f4554 <int>, new_sp_f5564 <int>,
    ## #   new_sp_f65 <int>, new_sn_m014 <int>, new_sn_m1524 <int>,
    ## #   new_sn_m2534 <int>, new_sn_m3544 <int>, new_sn_m4554 <int>,
    ## #   new_sn_m5564 <int>, new_sn_m65 <int>, new_sn_f014 <int>,
    ## #   new_sn_f1524 <int>, new_sn_f2534 <int>, new_sn_f3544 <int>,
    ## #   new_sn_f4554 <int>, new_sn_f5564 <int>, new_sn_f65 <int>,
…
``` r
who3 <- who2 %>% 
  separate(key, into = c("new","type","sexage"), sep = "_")

who3
```

    ## # A tibble: 405,440 x 8
    ##    country     iso2  iso3   year new   type  sexage cases
    ##    <chr>       <chr> <chr> <int> <chr> <chr> <chr>  <int>
    ##  1 Afghanistan AF    AFG    1980 new   sp    m014      NA
    ##  2 Afghanistan AF    AFG    1981 new   sp    m014      NA
    ##  3 Afghanistan AF    AFG    1982 new   sp    m014      NA
    ##  4 Afghanistan AF    AFG    1983 new   sp    m014      NA
    ##  5 Afghanistan AF    AFG    1984 new   sp    m014      NA
    ##  6 Afghanistan AF    AFG    1985 new   sp    m014      NA
    ##  7 Afghanistan AF    AFG    1986 new   sp    m014      NA
    ##  8 Afghanistan AF    AFG    1987 new   sp    m014      NA
    ##  9 Afghanistan AF    AFG    1988 new   sp    m014      NA
    ## 10 Afghanistan AF    AFG    1989 new   sp    m014      NA
    ## # ... with 405,430 more rows

이때, iso2, iso3, new는 모두 같으므로, 제거해도 될 것이다.

``` r
who4 <- who3 %>% 
  select(-iso2,-iso3,-new)

who4
```

    ## # A tibble: 405,440 x 5
    ##    country      year type  sexage cases
    ##    <chr>       <int> <chr> <chr>  <int>
    ##  1 Afghanistan  1980 sp    m014      NA
    ##  2 Afghanistan  1981 sp    m014      NA
    ##  3 Afghanistan  1982 sp    m014      NA
    ##  4 Afghanistan  1983 sp    m014      NA
    ##  5 Afghanistan  1984 sp    m014      NA
    ##  6 Afghanistan  1985 sp    m014      NA
    ##  7 Afghanistan  1986 sp    m014      NA
    ##  8 Afghanistan  1987 sp    m014      NA
    ##  9 Afghanistan  1988 sp    m014      NA
    ## 10 Afghanistan  1989 sp    m014      NA
    ## # ... with 405,430 more rows

다음으로는, sexage를 sex와 age로 분리할 것이다.

``` r
who5 <- who4 %>% 
  separate(sexage, into = c("sex", "age"), sep = 1)

who5
```

    ## # A tibble: 405,440 x 6
    ##    country      year type  sex   age   cases
    ##    <chr>       <int> <chr> <chr> <chr> <int>
    ##  1 Afghanistan  1980 sp    m     014      NA
    ##  2 Afghanistan  1981 sp    m     014      NA
    ##  3 Afghanistan  1982 sp    m     014      NA
    ##  4 Afghanistan  1983 sp    m     014      NA
    ##  5 Afghanistan  1984 sp    m     014      NA
    ##  6 Afghanistan  1985 sp    m     014      NA
    ##  7 Afghanistan  1986 sp    m     014      NA
    ##  8 Afghanistan  1987 sp    m     014      NA
    ##  9 Afghanistan  1988 sp    m     014      NA
    ## 10 Afghanistan  1989 sp    m     014      NA
    ## # ... with 405,430 more rows

``` r
# 각 country, year, sex에 대해 총 결핵 사례 조사하기
who5 %>% 
  group_by(country, year, sex) %>% 
  summarise(cases = sum(cases, na.rm = TRUE))
```

    ## # A tibble: 14,480 x 4
    ## # Groups:   country, year [7,240]
    ##    country      year sex   cases
    ##    <chr>       <int> <chr> <int>
    ##  1 Afghanistan  1980 f         0
    ##  2 Afghanistan  1980 m         0
    ##  3 Afghanistan  1981 f         0
    ##  4 Afghanistan  1981 m         0
    ##  5 Afghanistan  1982 f         0
    ##  6 Afghanistan  1982 m         0
    ##  7 Afghanistan  1983 f         0
    ##  8 Afghanistan  1983 m         0
    ##  9 Afghanistan  1984 f         0
    ## 10 Afghanistan  1984 m         0
    ## # ... with 14,470 more rows
…
